/Users/yangfan/IdeaProjects/TestGherkin/src/test/java/LoginTest/AcceptanceTest.java
/Users/yangfan/IdeaProjects/TestGherkin/src/test/java/LoginTest/loginSteps.java
/Users/yangfan/IdeaProjects/TestGherkin/src/test/java/FileAction/Runme.java
